{
  "artists": {
    "href": "https://api.spotify.com/v1/search?query=Bob&type=artist&offset=20&limit=2",
    "items": [
      {
        "external_urls": {
          "spotify": "https://open.spotify.com/artist/5MX2l6ewjOaeWn1lYNhzlO"
        },
        "followers": {
          "href": null,
          "total": 116809
        },
        "genres": [
          "adult standards",
          "brill building pop",
          "bubblegum pop",
          "doo-wop",
          "folk rock",
          "merseybeat",
          "rock-and-roll",
          "rockabilly"
        ],
        "href": "https://api.spotify.com/v1/artists/5MX2l6ewjOaeWn1lYNhzlO",
        "id": "5MX2l6ewjOaeWn1lYNhzlO",
        "images": [
          {
            "height": 1237,
            "url": "https://i.scdn.co/image/b7b3441a818ee3b20644e656b721b7fc251e7744",
            "width": 1000
          },
          {
            "height": 792,
            "url": "https://i.scdn.co/image/14d6b8b49d494022bebd1d16a7b0c8e6326d5dd3",
            "width": 640
          },
          {
            "height": 247,
            "url": "https://i.scdn.co/image/f9dacb9578fc5e34e9870ce5f8260e3e27287aab",
            "width": 200
          },
          {
            "height": 79,
            "url": "https://i.scdn.co/image/8e1b8e8541632bc4f1da67627730eff38e774cb0",
            "width": 64
          }
        ],
        "name": "Bobby Vee",
        "popularity": 55,
        "type": "artist",
        "uri": "spotify:artist:5MX2l6ewjOaeWn1lYNhzlO"
      },
      {
        "external_urls": {
          "spotify": "https://open.spotify.com/artist/6YB0tbDGk01Q0P6wcHPjpC"
        },
        "followers": {
          "href": null,
          "total": 68088
        },
        "genres": [
          "blues rock",
          "country rock",
          "folk rock",
          "jam band",
          "roots rock"
        ],
        "href": "https://api.spotify.com/v1/artists/6YB0tbDGk01Q0P6wcHPjpC",
        "id": "6YB0tbDGk01Q0P6wcHPjpC",
        "images": [
          {
            "height": 640,
            "url": "https://i.scdn.co/image/56799fb50807df9502052dc4c9f79b7b237f4fe5",
            "width": 640
          },
          {
            "height": 320,
            "url": "https://i.scdn.co/image/4c57792d5f158d341c84336e94c7311dbcc8fd2e",
            "width": 320
          },
          {
            "height": 160,
            "url": "https://i.scdn.co/image/fbff0f0cb3e8c5d75abfcc71d24e88d5ce7a9096",
            "width": 160
          }
        ],
        "name": "Bob Weir",
        "popularity": 48,
        "type": "artist",
        "uri": "spotify:artist:6YB0tbDGk01Q0P6wcHPjpC"
      }
    ],
    "limit": 2,
    "next": "https://api.spotify.com/v1/search?query=Bob&type=artist&offset=22&limit=2",
    "offset": 20,
    "previous": "https://api.spotify.com/v1/search?query=Bob&type=artist&offset=18&limit=2",
    "total": 10020
  }
}